mux8x1_wave.vcd
$date
	Thu Apr 17 12:25:16 2025
$end
$version
	Icarus Verilog
$end
$timescale
	1s
$end
$scope module tb_mux8x1 $end
$var wire 1 ! y $end
$var reg 8 " data [7:0] $end
$var reg 3 # sel [2:0] $end
$scope module uut $end
$var wire 8 $ data [7:0] $end
$var wire 3 % sel [2:0] $end
$var wire 1 ! y $end
$var wire 1 & m5 $end
$var wire 1 ' m4 $end
$var wire 1 ( m3 $end
$var wire 1 ) m2 $end
$var wire 1 * m1 $end
$var wire 1 + m0 $end
$scope module mux0 $end
$var wire 1 , a $end
$var wire 1 - b $end
$var wire 1 . sel $end
$var wire 1 + y $end
$upscope $end
$scope module mux1 $end
$var wire 1 / a $end
$var wire 1 0 b $end
$var wire 1 1 sel $end
$var wire 1 * y $end
$upscope $end
$scope module mux2 $end
$var wire 1 2 a $end
$var wire 1 3 b $end
$var wire 1 4 sel $end
$var wire 1 ) y $end
$upscope $end
$scope module mux3 $end
$var wire 1 5 a $end
$var wire 1 6 b $end
$var wire 1 7 sel $end
$var wire 1 ( y $end
$upscope $end
$scope module mux4 $end
$var wire 1 + a $end
$var wire 1 * b $end
$var wire 1 8 sel $end
$var wire 1 ' y $end
$upscope $end
$scope module mux5 $end
$var wire 1 ) a $end
$var wire 1 ( b $end
$var wire 1 9 sel $end
$var wire 1 & y $end
$upscope $end
$scope module mux6 $end
$var wire 1 ' a $end
$var wire 1 & b $end
$var wire 1 : sel $end
$var wire 1 ! y $end
$upscope $end
$upscope $end
$upscope $end
$enddefinitions $end
$comment Show the parameter values. $end
$dumpall
$end
#0
$dumpvars
0:
09
08
07
06
05
04
03
02
01
00
0/
0.
0-
1,
1+
0*
0)
0(
1'
0&
b0 %
b1 $
b0 #
b1 "
1!
$end
#10
1.
11
14
17
0,
1-
b1 #
b1 %
b10 "
b10 $
#20
1!
1*
1'
0+
0.
01
04
07
18
19
0-
1/
b10 #
b10 %
b100 "
b100 $
#30
1.
11
14
17
0/
10
b11 #
b11 %
b1000 "
b1000 $
#40
1&
1)
0'
1!
0*
0.
01
04
07
08
09
1:
00
12
b100 #
b100 %
b10000 "
b10000 $
#50
1.
11
14
17
02
13
b101 #
b101 %
b100000 "
b100000 $
#60
1!
1(
1&
0)
0.
01
04
07
18
19
03
15
b110 #
b110 %
b1000000 "
b1000000 $
#70
1.
11
14
17
05
16
b111 #
b111 %
b10000000 "
b10000000 $
